13408258,YESBANK19OCTFUT
13408002,WIPRO19OCTFUT
13407490,VOLTAS19OCTFUT
13400578,VEDL19OCTFUT
13400322,UPL19OCTFUT
13400066,UNIONBANK19OCTFUT
13399810,ULTRACEMCO19OCTFUT
13399554,UJJIVAN19OCTFUT
13399298,UBL19OCTFUT
13399042,TVSMOTOR19OCTFUT
13398786,TORNTPOWER19OCTFUT
13393922,TITAN19OCTFUT
13391618,TECHM19OCTFUT
13391362,TCS19OCTFUT
13386498,TATASTEEL19OCTFUT
13385730,TATAPOWER19OCTFUT
13385474,TATAMTRDVR19OCTFUT
13385218,TATAMOTORS19OCTFUT
13384962,TATAGLOBAL19OCTFUT
13384194,TATAELXSI19OCTFUT
13380866,TATACHEM19OCTFUT
13380610,SUNTV19OCTFUT
13375746,SUNPHARMA19OCTFUT
13362946,RELIANCE19OCTFUT
13362690,RECLTD19OCTFUT
13360386,RBLBANK19OCTFUT
13360130,RAMCOCEM19OCTFUT
13356290,PVR19OCTFUT
13356034,POWERGRID19OCTFUT
13355778,PNB19OCTFUT
13355522,PIDILITIND19OCTFUT
13355266,PFC19OCTFUT
13355010,PETRONET19OCTFUT
13350146,PEL19OCTFUT
13349890,PAGEIND19OCTFUT
13347586,ONGC19OCTFUT
13347330,OIL19OCTFUT
13346050,NTPC19OCTFUT
13345794,NMDC19OCTFUT
13342466,NIITTECH19OCTFUT
13177602,NIFTYIT19OCTFUT
13177346,NIFTY19OCTFUT
13342210,NESTLEIND19OCTFUT
13340418,NCC19OCTFUT
13340162,NBCC19OCTFUT
13337346,NATIONALUM19OCTFUT
13337090,MUTHOOTFIN19OCTFUT
13332738,MRF19OCTFUT
13332482,MOTHERSUMI19OCTFUT
13331458,MGL19OCTFUT
13327618,MFSL19OCTFUT
13324546,MARUTI19OCTFUT
13324290,MARICO19OCTFUT
13324034,MANAPPURAM19OCTFUT
13323778,M&MFIN19OCTFUT
13319426,M&M19OCTFUT
13319170,LUPIN19OCTFUT
13315074,LT19OCTFUT
13314818,LICHSGFIN19OCTFUT
13309442,L&TFH19OCTFUT
13308930,KOTAKBANK19OCTFUT
13303298,JUSTDIAL19OCTFUT
13303042,JUBLFOOD19OCTFUT
13302786,JSWSTEEL19OCTFUT
13302530,JINDALSTEL19OCTFUT
13297666,ITC19OCTFUT
13290498,INFY19OCTFUT
13290242,INFRATEL19OCTFUT
13279234,INDUSINDBK19OCTFUT
13278210,IDEA19OCTFUT
13277954,ICICIPRULI19OCTFUT
13260546,ICICIBANK19OCTFUT
13260290,IBULHSGFIN19OCTFUT
13260034,HINDUNILVR19OCTFUT
13259266,HINDPETRO19OCTFUT
13259010,HINDALCO19OCTFUT
13258242,HEXAWARE19OCTFUT
13248770,HEROMOTOCO19OCTFUT
13247746,HDFC19OCTFUT
13247490,HCLTECH19OCTFUT
13247234,HAVELLS19OCTFUT
13246466,GRASIM19OCTFUT
13246210,GODREJCP19OCTFUT
13245954,GMRINFRA19OCTFUT
13245698,GLENMARK19OCTFUT
13244930,GAIL19OCTFUT
13244674,FEDERALBNK19OCTFUT
13244418,EXIDEIND19OCTFUT
13244162,ESCORTS19OCTFUT
13243394,EQUITAS19OCTFUT
13243138,EICHERMOT19OCTFUT
13242882,DRREDDY19OCTFUT
13242626,DLF19OCTFUT
13242370,DIVISLAB19OCTFUT
13242114,DISHTV19OCTFUT
13241346,DABUR19OCTFUT
13241090,CUMMINSIND19OCTFUT
13240834,CONCOR19OCTFUT
13240578,COLPAL19OCTFUT
13239810,COALINDIA19OCTFUT
13239554,CIPLA19OCTFUT
13239298,CHOLAFIN19OCTFUT
13239042,CESC19OCTFUT
13238274,CENTURYTEX19OCTFUT
13238018,CASTROLIND19OCTFUT
13237762,CANBK19OCTFUT
13237506,CADILAHC19OCTFUT
13237250,BRITANNIA19OCTFUT
13223938,BPCL19OCTFUT
13223682,BOSCHLTD19OCTFUT
13219330,BIOCON19OCTFUT
13219074,BHEL19OCTFUT
13218818,BHARTIARTL19OCTFUT
13218562,BHARATFORG19OCTFUT
13215746,BERGEPAINT19OCTFUT
13213186,BATAINDIA19OCTFUT
13176834,BANKNIFTY19OCTFUT
13212930,BANKINDIA19OCTFUT
13211650,BANKBARODA19OCTFUT
13211394,BALKRISIND19OCTFUT
13207810,BAJFINANCE19OCTFUT
13207298,BAJAJFINSV19OCTFUT
13206530,BAJAJ-AUTO19OCTFUT
13206274,AXISBANK19OCTFUT
13202434,AUROPHARMA19OCTFUT
13202178,ASIANPAINT19OCTFUT
13201410,ASHOKLEY19OCTFUT
13201154,APOLLOTYRE19OCTFUT
13193986,APOLLOHOSP19OCTFUT
13193730,AMBUJACEM19OCTFUT
13191170,AMARAJABAT19OCTFUT
13188354,ADANIPOWER19OCTFUT
13184002,ADANIPORTS19OCTFUT
13183746,ADANIENT19OCTFUT
13177858,ACC19OCTFUT
13375490,STAR19OCTFUT
13372674,SRTRANSFIN19OCTFUT
13372418,SRF19OCTFUT
13366530,SIEMENS19OCTFUT
13366274,SHREECEM19OCTFUT
13363970,SBIN19OCTFUT
13363714,SAIL19OCTFUT
13215490,BEL19OCTFUT
13297410,IOC19OCTFUT
13331714,MINDTREE19OCTFUT
13278978,INDIGO19OCTFUT
13278722,IGL19OCTFUT
13278466,IDFCFIRSTB19OCTFUT
13248002,HDFCBANK19OCTFUT
13394434,TORNTPHARM19OCTFUT
13408514,ZEEL19OCTFUT
13327362,MCDOWELL-N19OCTFUT
